{"photos":{"page":2,"pages":5,"perpage":100,"total":500,"photo":[{"id":"51365890189","owner":"106306875@N07","secret":"a92e185876","server":"65535","farm":66,"title":"criquenstock","ispublic":1,"isfriend":0,"isfamily":0,"url_s":"https:\/\/live.staticflickr.com\/65535\/51365890189_a92e185876_m.jpg","height_s":160,"width_s":240},{"id":"51362190869","owner":"133955849@N08","secret":"6ee38d9fa9","server":"65535","farm":66,"title":"","ispublic":1,"isfriend":0,"isfamily":0,"url_s":"https:\/\/live.staticflickr.com\/65535\/51362190869_6ee38d9fa9_m.jpg","height_s":160,"width_s":240},{"id":"51365407429","owner":"138459774@N07","secret":"21971a7317","server":"65535","farm":66,"title":"Klare Ansage [in explore]","ispublic":1,"isfriend":0,"isfamily":0,"url_s":"https:\/\/live.staticflickr.com\/65535\/51365407429_21971a7317_m.jpg","height_s":240,"width_s":180},{"id":"51364715471","owner":"121626822@N02","secret":"cb261998a0","server":"65535","farm":66,"title":"Junibokeh","ispublic":1,"isfriend":0,"isfamily":0,"url_s":"https:\/\/live.staticflickr.com\/65535\/51364715471_cb261998a0_m.jpg","height_s":160,"width_s":240},{"id":"51364518033","owner":"83923278@N02","secret":"9b4fc0cd1f","server":"65535","farm":66,"title":"Independence day","ispublic":1,"isfriend":0,"isfamily":0,"url_s":"https:\/\/live.staticflickr.com\/65535\/51364518033_9b4fc0cd1f_m.jpg","height_s":123,"width_s":240},{"id":"51364350290","owner":"134899524@N04","secret":"7736523f05","server":"65535","farm":66,"title":"Livarebo, Sweden","ispublic":1,"isfriend":0,"isfamily":0,"url_s":"https:\/\/live.staticflickr.com\/65535\/51364350290_7736523f05_m.jpg","height_s":107,"width_s":240},{"id":"51362714920","owner":"73629063@N06","secret":"1f55576b52","server":"65535","farm":66,"title":"Manipulaci\u00f3n","ispublic":1,"isfriend":0,"isfamily":0,"url_s":"https:\/\/live.staticflickr.com\/65535\/51362714920_1f55576b52_m.jpg","height_s":240,"width_s":240},{"id":"51365086354","owner":"78036087@N05","secret":"29b2ff92f4","server":"65535","farm":66,"title":"Wind in the hair and the house","ispublic":1,"isfriend":0,"isfamily":0,"url_s":"https:\/\/live.staticflickr.com\/65535\/51365086354_29b2ff92f4_m.jpg","height_s":240,"width_s":240},{"id":"51363594780","owner":"50127920@N05","secret":"b5066a229a","server":"65535","farm":66,"title":"pier. taken.","ispublic":1,"isfriend":0,"isfamily":0,"url_s":"https:\/\/live.staticflickr.com\/65535\/51363594780_b5066a229a_m.jpg","height_s":180,"width_s":240},{"id":"51362662842","owner":"117708192@N04","secret":"46cefc3e4d","server":"65535","farm":66,"title":"Magical Light from the Field","ispublic":1,"isfriend":0,"isfamily":0,"url_s":"https:\/\/live.staticflickr.com\/65535\/51362662842_46cefc3e4d_m.jpg","height_s":130,"width_s":240},{"id":"51364335210","owner":"140905559@N06","secret":"7029fe6157","server":"65535","farm":66,"title":"Glacier du Moiry","ispublic":1,"isfriend":0,"isfamily":0,"url_s":"https:\/\/live.staticflickr.com\/65535\/51364335210_7029fe6157_m.jpg","height_s":240,"width_s":160},{"id":"51364191638","owner":"16926694@N06","secret":"29706673fb","server":"65535","farm":66,"title":"the world beneath","ispublic":1,"isfriend":0,"isfamily":0,"url_s":"https:\/\/live.staticflickr.com\/65535\/51364191638_29706673fb_m.jpg","height_s":160,"width_s":240},{"id":"51364122855","owner":"126585929@N07","secret":"47dc585f90","server":"65535","farm":66,"title":"M\u00e9diterran\u00e9e.","ispublic":1,"isfriend":0,"isfamily":0,"url_s":"https:\/\/live.staticflickr.com\/65535\/51364122855_47dc585f90_m.jpg","height_s":180,"width_s":240},{"id":"51363944872","owner":"109886758@N06","secret":"38129f212b","server":"65535","farm":66,"title":"By the lake","ispublic":1,"isfriend":0,"isfamily":0,"url_s":"https:\/\/live.staticflickr.com\/65535\/51363944872_38129f212b_m.jpg","height_s":160,"width_s":240},{"id":"51365909970","owner":"188034775@N04","secret":"96faae5a9b","server":"65535","farm":66,"title":"my beauty\u2026 my precious\u2026","ispublic":1,"isfriend":0,"isfamily":0,"url_s":"https:\/\/live.staticflickr.com\/65535\/51365909970_96faae5a9b_m.jpg","height_s":166,"width_s":240},{"id":"51364557483","owner":"78311865@N05","secret":"820df2c057","server":"65535","farm":66,"title":"Free as a bird","ispublic":1,"isfriend":0,"isfamily":0,"url_s":"https:\/\/live.staticflickr.com\/65535\/51364557483_820df2c057_m.jpg","height_s":240,"width_s":158},{"id":"51364478281","owner":"153346469@N02","secret":"9c32e1d7b0","server":"65535","farm":66,"title":"Grand bombyle - Bombylius major -","ispublic":1,"isfriend":0,"isfamily":0,"url_s":"https:\/\/live.staticflickr.com\/65535\/51364478281_9c32e1d7b0_m.jpg","height_s":160,"width_s":240},{"id":"51363561681","owner":"107947995@N06","secret":"3a0a1ac6cc","server":"65535","farm":66,"title":"it has been such a long time since went to our beloved Honfleur. Vieux Bassin (Old Harbour) February 2020. Honfleur, Calvados, Normandie (Normandy), France.","ispublic":1,"isfriend":0,"isfamily":0,"url_s":"https:\/\/live.staticflickr.com\/65535\/51363561681_3a0a1ac6cc_m.jpg","height_s":160,"width_s":240},{"id":"51362123931","owner":"67602718@N08","secret":"151a7cd773","server":"65535","farm":66,"title":"Morning Light on Sunrise Trail at Mt rainier","ispublic":1,"isfriend":0,"isfamily":0,"url_s":"https:\/\/live.staticflickr.com\/65535\/51362123931_151a7cd773_m.jpg","height_s":160,"width_s":240},{"id":"51361905938","owner":"49793676@N06","secret":"d993507fc3","server":"65535","farm":66,"title":"\u30aa\u30ab\u30c8\u30e9\u30ce\u30aa","ispublic":1,"isfriend":0,"isfamily":0,"url_s":"https:\/\/live.staticflickr.com\/65535\/51361905938_d993507fc3_m.jpg","height_s":160,"width_s":240},{"id":"51365337784","owner":"22386107@N08","secret":"92c95e6ae0","server":"65535","farm":66,"title":"Just another summer sunset...","ispublic":1,"isfriend":0,"isfamily":0,"url_s":"https:\/\/live.staticflickr.com\/65535\/51365337784_92c95e6ae0_m.jpg","height_s":180,"width_s":240},{"id":"51365170624","owner":"167252573@N02","secret":"22d3a101e9","server":"65535","farm":66,"title":"Lake Carezza Trentino Alto Adige","ispublic":1,"isfriend":0,"isfamily":0,"url_s":"https:\/\/live.staticflickr.com\/65535\/51365170624_22d3a101e9_m.jpg","height_s":160,"width_s":240},{"id":"51365013086","owner":"134504864@N03","secret":"0167138293","server":"65535","farm":66,"title":"Marie","ispublic":1,"isfriend":0,"isfamily":0,"url_s":"https:\/\/live.staticflickr.com\/65535\/51365013086_0167138293_m.jpg","height_s":240,"width_s":240},{"id":"51364870979","owner":"100360106@N04","secret":"1008c953d5","server":"65535","farm":66,"title":"Allen's Hummingbird (X16_7241-1)","ispublic":1,"isfriend":0,"isfamily":0,"url_s":"https:\/\/live.staticflickr.com\/65535\/51364870979_1008c953d5_m.jpg","height_s":159,"width_s":240},{"id":"51364845115","owner":"68801711@N00","secret":"68c3c5a746","server":"65535","farm":66,"title":"Algonquin sunset","ispublic":1,"isfriend":0,"isfamily":0,"url_s":"https:\/\/live.staticflickr.com\/65535\/51364845115_68c3c5a746_m.jpg","height_s":159,"width_s":240},{"id":"51364136744","owner":"30191245@N00","secret":"4da12dd8ca","server":"65535","farm":66,"title":"time and tide","ispublic":1,"isfriend":0,"isfamily":0,"url_s":"https:\/\/live.staticflickr.com\/65535\/51364136744_4da12dd8ca_m.jpg","height_s":98,"width_s":240},{"id":"51363996495","owner":"182091078@N06","secret":"0de5b0f3ec","server":"65535","farm":66,"title":"Calle Licenciado Francisco de Paula Cousi\u00f1o ( Pontevedra)","ispublic":1,"isfriend":0,"isfamily":0,"url_s":"https:\/\/live.staticflickr.com\/65535\/51363996495_0de5b0f3ec_m.jpg","height_s":160,"width_s":240},{"id":"51363834834","owner":"24636652@N00","secret":"6a6905bae9","server":"65535","farm":66,"title":"Sky today 7 August 2021","ispublic":1,"isfriend":0,"isfamily":0,"url_s":"https:\/\/live.staticflickr.com\/65535\/51363834834_6a6905bae9_m.jpg","height_s":180,"width_s":240},{"id":"51363710840","owner":"154904486@N06","secret":"ca64e26761","server":"65535","farm":66,"title":"Relax","ispublic":1,"isfriend":0,"isfamily":0,"url_s":"https:\/\/live.staticflickr.com\/65535\/51363710840_ca64e26761_m.jpg","height_s":160,"width_s":240},{"id":"51363503228","owner":"162436463@N04","secret":"11de6088a5","server":"65535","farm":66,"title":"Contrast F: https:\/\/instagram.com\/reiner.renier?utm_medium=copy_link","ispublic":1,"isfriend":0,"isfamily":0,"url_s":"https:\/\/live.staticflickr.com\/65535\/51363503228_11de6088a5_m.jpg","height_s":240,"width_s":160},{"id":"51363164781","owner":"32331558@N04","secret":"550a144d02","server":"65535","farm":66,"title":"Hace 14 a\u00f1os","ispublic":1,"isfriend":0,"isfamily":0,"url_s":"https:\/\/live.staticflickr.com\/65535\/51363164781_550a144d02_m.jpg","height_s":79,"width_s":240},{"id":"51363113396","owner":"74787113@N05","secret":"9676cc7b31","server":"65535","farm":66,"title":"GOLDEN SUNRISE","ispublic":1,"isfriend":0,"isfamily":0,"url_s":"https:\/\/live.staticflickr.com\/65535\/51363113396_9676cc7b31_m.jpg","height_s":240,"width_s":161},{"id":"51363092555","owner":"130281204@N06","secret":"2e9fe7bf95","server":"65535","farm":66,"title":"Forked Comb Fern","ispublic":1,"isfriend":0,"isfamily":0,"url_s":"https:\/\/live.staticflickr.com\/65535\/51363092555_2e9fe7bf95_m.jpg","height_s":160,"width_s":240},{"id":"51362988341","owner":"142234681@N08","secret":"8d8bcbc4e9","server":"65535","farm":66,"title":"**","ispublic":1,"isfriend":0,"isfamily":0,"url_s":"https:\/\/live.staticflickr.com\/65535\/51362988341_8d8bcbc4e9_m.jpg","height_s":135,"width_s":240},{"id":"51365188274","owner":"117669403@N02","secret":"78a67b8726","server":"65535","farm":66,"title":"Panora\u0301mica en el castillo de Pradas","ispublic":1,"isfriend":0,"isfamily":0,"url_s":"https:\/\/live.staticflickr.com\/65535\/51365188274_78a67b8726_m.jpg","height_s":101,"width_s":240},{"id":"51364961095","owner":"191837641@N08","secret":"b9470ffdec","server":"65535","farm":66,"title":"Foggy Morning on Lolo Creek","ispublic":1,"isfriend":0,"isfamily":0,"url_s":"https:\/\/live.staticflickr.com\/65535\/51364961095_b9470ffdec_m.jpg","height_s":240,"width_s":180},{"id":"51364864993","owner":"41345939@N02","secret":"5d9121ea36","server":"65535","farm":66,"title":"E = mc^2","ispublic":1,"isfriend":0,"isfamily":0,"url_s":"https:\/\/live.staticflickr.com\/65535\/51364864993_5d9121ea36_m.jpg","height_s":160,"width_s":240},{"id":"51363029526","owner":"59927723@N00","secret":"8d7a4ffc37","server":"65535","farm":66,"title":"OK, I'll take your portrait (in explore 08-08-2021)","ispublic":1,"isfriend":0,"isfamily":0,"url_s":"https:\/\/live.staticflickr.com\/65535\/51363029526_8d7a4ffc37_m.jpg","height_s":240,"width_s":202},{"id":"51362764171","owner":"31270106@N07","secret":"b23711f4f3","server":"65535","farm":66,"title":"0706_1299 Hoodoo","ispublic":1,"isfriend":0,"isfamily":0,"url_s":"https:\/\/live.staticflickr.com\/65535\/51362764171_b23711f4f3_m.jpg","height_s":240,"width_s":161},{"id":"51362631953","owner":"113743626@N07","secret":"9659801378","server":"65535","farm":66,"title":"_DSC1998","ispublic":1,"isfriend":0,"isfamily":0,"url_s":"https:\/\/live.staticflickr.com\/65535\/51362631953_9659801378_m.jpg","height_s":160,"width_s":240},{"id":"51362483587","owner":"65827290@N02","secret":"a3c9c95e37","server":"65535","farm":66,"title":"Cornus mas (Explore)","ispublic":1,"isfriend":0,"isfamily":0,"url_s":"https:\/\/live.staticflickr.com\/65535\/51362483587_a3c9c95e37_m.jpg","height_s":135,"width_s":240},{"id":"51361278012","owner":"148045557@N06","secret":"b82a37dba9","server":"65535","farm":66,"title":"Entrance to Djoser \u00a9twe2019\u263c","ispublic":1,"isfriend":0,"isfamily":0,"url_s":"https:\/\/live.staticflickr.com\/65535\/51361278012_b82a37dba9_m.jpg","height_s":160,"width_s":240},{"id":"51365642744","owner":"141522390@N08","secret":"47453d2e9a","server":"65535","farm":66,"title":"Sunset (Aug 07, 2021)","ispublic":1,"isfriend":0,"isfamily":0,"url_s":"https:\/\/live.staticflickr.com\/65535\/51365642744_47453d2e9a_m.jpg","height_s":135,"width_s":240},{"id":"51365311684","owner":"138116078@N04","secret":"4f28b2285e","server":"65535","farm":66,"title":"Rose Wall","ispublic":1,"isfriend":0,"isfamily":0,"url_s":"https:\/\/live.staticflickr.com\/65535\/51365311684_4f28b2285e_m.jpg","height_s":240,"width_s":180},{"id":"51365101093","owner":"28791544@N04","secret":"290fccae58","server":"65535","farm":66,"title":"Lunch On The Go - Explored","ispublic":1,"isfriend":0,"isfamily":0,"url_s":"https:\/\/live.staticflickr.com\/65535\/51365101093_290fccae58_m.jpg","height_s":102,"width_s":240},{"id":"51364798985","owner":"184332056@N02","secret":"bf348836d3","server":"65535","farm":66,"title":"Summer Green (explored 8-8-2021)","ispublic":1,"isfriend":0,"isfamily":0,"url_s":"https:\/\/live.staticflickr.com\/65535\/51364798985_bf348836d3_m.jpg","height_s":240,"width_s":198},{"id":"51364735591","owner":"59512708@N00","secret":"b92cf449d7","server":"65535","farm":66,"title":"was will man mehr? | berlin | 2108","ispublic":1,"isfriend":0,"isfamily":0,"url_s":"https:\/\/live.staticflickr.com\/65535\/51364735591_b92cf449d7_m.jpg","height_s":180,"width_s":240},{"id":"51364721124","owner":"76131572@N07","secret":"6dd084eca9","server":"65535","farm":66,"title":"Mackinac Bridge","ispublic":1,"isfriend":0,"isfamily":0,"url_s":"https:\/\/live.staticflickr.com\/65535\/51364721124_6dd084eca9_m.jpg","height_s":178,"width_s":240},{"id":"51364493915","owner":"19350717@N02","secret":"45975669eb","server":"65535","farm":66,"title":"Life in these United States, 2018","ispublic":1,"isfriend":0,"isfamily":0,"url_s":"https:\/\/live.staticflickr.com\/65535\/51364493915_45975669eb_m.jpg","height_s":160,"width_s":240},{"id":"51363806931","owner":"101077881@N02","secret":"0fffc52ea4","server":"65535","farm":66,"title":"A Stop At The One Lane Bridge","ispublic":1,"isfriend":0,"isfamily":0,"url_s":"https:\/\/live.staticflickr.com\/65535\/51363806931_0fffc52ea4_m.jpg","height_s":160,"width_s":240},{"id":"51363286629","owner":"56830712@N03","secret":"e973a6a8b9","server":"65535","farm":66,"title":"***","ispublic":1,"isfriend":0,"isfamily":0,"url_s":"https:\/\/live.staticflickr.com\/65535\/51363286629_e973a6a8b9_m.jpg","height_s":160,"width_s":240},{"id":"51363181162","owner":"166552564@N07","secret":"23f54c4ce5","server":"65535","farm":66,"title":"\u96e8\u904e\u5929\u6674 After rain comes sunshine.","ispublic":1,"isfriend":0,"isfamily":0,"url_s":"https:\/\/live.staticflickr.com\/65535\/51363181162_23f54c4ce5_m.jpg","height_s":160,"width_s":240},{"id":"51362463597","owner":"24600982@N08","secret":"d165d326a7","server":"65535","farm":66,"title":"Disippating Fog","ispublic":1,"isfriend":0,"isfamily":0,"url_s":"https:\/\/live.staticflickr.com\/65535\/51362463597_d165d326a7_m.jpg","height_s":171,"width_s":240},{"id":"51361582392","owner":"128172109@N06","secret":"279ca0805d","server":"65535","farm":66,"title":"At the end of the day","ispublic":1,"isfriend":0,"isfamily":0,"url_s":"https:\/\/live.staticflickr.com\/65535\/51361582392_279ca0805d_m.jpg","height_s":160,"width_s":240},{"id":"51365299070","owner":"33319209@N02","secret":"a96cc6de5b","server":"65535","farm":66,"title":"Tyto alba","ispublic":1,"isfriend":0,"isfamily":0,"url_s":"https:\/\/live.staticflickr.com\/65535\/51365299070_a96cc6de5b_m.jpg","height_s":160,"width_s":240},{"id":"51364569536","owner":"92828452@N07","secret":"51264507cb","server":"65535","farm":66,"title":"Yanagibashi, Meieki 4-chome, Nagoya","ispublic":1,"isfriend":0,"isfamily":0,"url_s":"https:\/\/live.staticflickr.com\/65535\/51364569536_51264507cb_m.jpg","height_s":159,"width_s":240},{"id":"51364270070","owner":"35416030@N08","secret":"995a0ef033","server":"65535","farm":66,"title":"Red Panda..","ispublic":1,"isfriend":0,"isfamily":0,"url_s":"https:\/\/live.staticflickr.com\/65535\/51364270070_995a0ef033_m.jpg","height_s":162,"width_s":240},{"id":"51364114865","owner":"65545813@N05","secret":"1b835469f1","server":"65535","farm":66,"title":"Father Fox","ispublic":1,"isfriend":0,"isfamily":0,"url_s":"https:\/\/live.staticflickr.com\/65535\/51364114865_1b835469f1_m.jpg","height_s":160,"width_s":240},{"id":"51363899375","owner":"158920813@N02","secret":"95eb2b0136","server":"65535","farm":66,"title":"Fairytale","ispublic":1,"isfriend":0,"isfamily":0,"url_s":"https:\/\/live.staticflickr.com\/65535\/51363899375_95eb2b0136_m.jpg","height_s":240,"width_s":183},{"id":"51363131094","owner":"164929774@N04","secret":"ce672d56b2","server":"65535","farm":66,"title":"MACHU PICCHU","ispublic":1,"isfriend":0,"isfamily":0,"url_s":"https:\/\/live.staticflickr.com\/65535\/51363131094_ce672d56b2_m.jpg","height_s":240,"width_s":192},{"id":"51362457495","owner":"150317296@N07","secret":"a990257da2","server":"65535","farm":66,"title":"Rainy Castle","ispublic":1,"isfriend":0,"isfamily":0,"url_s":"https:\/\/live.staticflickr.com\/65535\/51362457495_a990257da2_m.jpg","height_s":135,"width_s":240},{"id":"51365678555","owner":"63288875@N04","secret":"6b7fc36243","server":"65535","farm":66,"title":"Mushroom Lighting","ispublic":1,"isfriend":0,"isfamily":0,"url_s":"https:\/\/live.staticflickr.com\/65535\/51365678555_6b7fc36243_m.jpg","height_s":160,"width_s":240},{"id":"51365195935","owner":"61082884@N04","secret":"84edcd0e8a","server":"65535","farm":66,"title":"Taj Mahal 3","ispublic":1,"isfriend":0,"isfamily":0,"url_s":"https:\/\/live.staticflickr.com\/65535\/51365195935_84edcd0e8a_m.jpg","height_s":231,"width_s":240},{"id":"51364278700","owner":"182041528@N06","secret":"4054445780","server":"65535","farm":66,"title":"I see the world....","ispublic":1,"isfriend":0,"isfamily":0,"url_s":"https:\/\/live.staticflickr.com\/65535\/51364278700_4054445780_m.jpg","height_s":240,"width_s":240},{"id":"51364275861","owner":"66045307@N06","secret":"d38d9c2bc4","server":"65535","farm":66,"title":"Citrus swallowtail stopping at Clerodendrum bungei","ispublic":1,"isfriend":0,"isfamily":0,"url_s":"https:\/\/live.staticflickr.com\/65535\/51364275861_d38d9c2bc4_m.jpg","height_s":160,"width_s":240},{"id":"51364027756","owner":"35455043@N06","secret":"28d6d1359a","server":"65535","farm":66,"title":"Blue Ridge Majesty","ispublic":1,"isfriend":0,"isfamily":0,"url_s":"https:\/\/live.staticflickr.com\/65535\/51364027756_28d6d1359a_m.jpg","height_s":160,"width_s":240},{"id":"51364013863","owner":"12776317@N06","secret":"b1d77b7072","server":"65535","farm":66,"title":"A walk in the woods to find some natural beauty ( pic 1 )","ispublic":1,"isfriend":0,"isfamily":0,"url_s":"https:\/\/live.staticflickr.com\/65535\/51364013863_b1d77b7072_m.jpg","height_s":180,"width_s":240},{"id":"51363251068","owner":"52559257@N02","secret":"284a387340","server":"65535","farm":66,"title":"40377","ispublic":1,"isfriend":0,"isfamily":0,"url_s":"https:\/\/live.staticflickr.com\/65535\/51363251068_284a387340_m.jpg","height_s":160,"width_s":240},{"id":"51362936393","owner":"189383653@N06","secret":"b0034d07de","server":"65535","farm":66,"title":"Waves...","ispublic":1,"isfriend":0,"isfamily":0,"url_s":"https:\/\/live.staticflickr.com\/65535\/51362936393_b0034d07de_m.jpg","height_s":120,"width_s":240},{"id":"51362445067","owner":"134759303@N04","secret":"10b09ec426","server":"65535","farm":66,"title":"Polyommatus icarus","ispublic":1,"isfriend":0,"isfamily":0,"url_s":"https:\/\/live.staticflickr.com\/65535\/51362445067_10b09ec426_m.jpg","height_s":155,"width_s":240},{"id":"51362330671","owner":"140575723@N07","secret":"210a47dde0","server":"65535","farm":66,"title":"Alv\u00e9ola Branca (Motacilla alba)","ispublic":1,"isfriend":0,"isfamily":0,"url_s":"https:\/\/live.staticflickr.com\/65535\/51362330671_210a47dde0_m.jpg","height_s":160,"width_s":240},{"id":"51361770777","owner":"191160446@N08","secret":"1515296ed5","server":"65535","farm":66,"title":"Landungsbr\u00fccken","ispublic":1,"isfriend":0,"isfamily":0,"url_s":"https:\/\/live.staticflickr.com\/65535\/51361770777_1515296ed5_m.jpg","height_s":180,"width_s":240},{"id":"51365520219","owner":"161404448@N08","secret":"c665a0f7d4","server":"65535","farm":66,"title":"8.8.21 F","ispublic":1,"isfriend":0,"isfamily":0,"url_s":"https:\/\/live.staticflickr.com\/65535\/51365520219_c665a0f7d4_m.jpg","height_s":162,"width_s":240},{"id":"51365510750","owner":"44258935@N04","secret":"5dfafea157","server":"65535","farm":66,"title":"Forest Walk","ispublic":1,"isfriend":0,"isfamily":0,"url_s":"https:\/\/live.staticflickr.com\/65535\/51365510750_5dfafea157_m.jpg","height_s":160,"width_s":240},{"id":"51365509079","owner":"117646794@N07","secret":"63da6dac99","server":"65535","farm":66,"title":"Rougequeue noir femelle juv\u00e9nile - Phoenicurus ochruros - Black Redstart - Hausrotschwanz - Colirrojo tiz\u00f3n - Codirosso spazzacamino","ispublic":1,"isfriend":0,"isfamily":0,"url_s":"https:\/\/live.staticflickr.com\/65535\/51365509079_63da6dac99_m.jpg","height_s":160,"width_s":240},{"id":"51365165188","owner":"150034510@N04","secret":"05eafe303b","server":"65535","farm":66,"title":"Sliders Sunday-Sundown in the City-5237","ispublic":1,"isfriend":0,"isfamily":0,"url_s":"https:\/\/live.staticflickr.com\/65535\/51365165188_05eafe303b_m.jpg","height_s":190,"width_s":240},{"id":"51364876990","owner":"42715213@N03","secret":"34cc7bf594","server":"65535","farm":66,"title":"street portrait...","ispublic":1,"isfriend":0,"isfamily":0,"url_s":"https:\/\/live.staticflickr.com\/65535\/51364876990_34cc7bf594_m.jpg","height_s":239,"width_s":240},{"id":"51364824215","owner":"61658184@N08","secret":"f1ccec2db8","server":"65535","farm":66,"title":"Trees along Creek","ispublic":1,"isfriend":0,"isfamily":0,"url_s":"https:\/\/live.staticflickr.com\/65535\/51364824215_f1ccec2db8_m.jpg","height_s":181,"width_s":240},{"id":"51364724098","owner":"182149555@N08","secret":"a273a5451b","server":"65535","farm":66,"title":"Build A City","ispublic":1,"isfriend":0,"isfamily":0,"url_s":"https:\/\/live.staticflickr.com\/65535\/51364724098_a273a5451b_m.jpg","height_s":168,"width_s":240},{"id":"51364718691","owner":"24114716@N08","secret":"001a7f0072","server":"65535","farm":66,"title":"number 2 and back to work.","ispublic":1,"isfriend":0,"isfamily":0,"url_s":"https:\/\/live.staticflickr.com\/65535\/51364718691_001a7f0072_m.jpg","height_s":160,"width_s":240},{"id":"51364662905","owner":"144723003@N02","secret":"e82960c636","server":"65535","farm":66,"title":"Believing, is the bridge between you and everything.","ispublic":1,"isfriend":0,"isfamily":0,"url_s":"https:\/\/live.staticflickr.com\/65535\/51364662905_e82960c636_m.jpg","height_s":180,"width_s":240},{"id":"51364269888","owner":"37314427@N03","secret":"79761e2c50","server":"65535","farm":66,"title":"","ispublic":1,"isfriend":0,"isfamily":0,"url_s":"https:\/\/live.staticflickr.com\/65535\/51364269888_79761e2c50_m.jpg","height_s":240,"width_s":160},{"id":"51364185966","owner":"123630598@N07","secret":"533f3e4e82","server":"65535","farm":66,"title":"Coffee Time @ 63 [ Explored ]","ispublic":1,"isfriend":0,"isfamily":0,"url_s":"https:\/\/live.staticflickr.com\/65535\/51364185966_533f3e4e82_m.jpg","height_s":183,"width_s":240},{"id":"51363990164","owner":"139270692@N03","secret":"6396260fa4","server":"65535","farm":66,"title":"Teufelsmauer in Explore 9.8.2021","ispublic":1,"isfriend":0,"isfamily":0,"url_s":"https:\/\/live.staticflickr.com\/65535\/51363990164_6396260fa4_m.jpg","height_s":160,"width_s":240},{"id":"51363954117","owner":"61609046@N06","secret":"5fdb07de0e","server":"65535","farm":66,"title":"On the River","ispublic":1,"isfriend":0,"isfamily":0,"url_s":"https:\/\/live.staticflickr.com\/65535\/51363954117_5fdb07de0e_m.jpg","height_s":160,"width_s":240},{"id":"51363812585","owner":"151498572@N04","secret":"71c5f84b55","server":"65535","farm":66,"title":"Western Grey Kangaroo","ispublic":1,"isfriend":0,"isfamily":0,"url_s":"https:\/\/live.staticflickr.com\/65535\/51363812585_71c5f84b55_m.jpg","height_s":160,"width_s":240},{"id":"51363661697","owner":"35672950@N06","secret":"002a2c4d53","server":"65535","farm":66,"title":"Paddock 001 (Explore - 08 August, 2021 - #187)","ispublic":1,"isfriend":0,"isfamily":0,"url_s":"https:\/\/live.staticflickr.com\/65535\/51363661697_002a2c4d53_m.jpg","height_s":160,"width_s":240},{"id":"51363393993","owner":"26489214@N00","secret":"32f3dee396","server":"65535","farm":66,"title":"Morgenlicht \u00dcber Dem Dorf","ispublic":1,"isfriend":0,"isfamily":0,"url_s":"https:\/\/live.staticflickr.com\/65535\/51363393993_32f3dee396_m.jpg","height_s":95,"width_s":240},{"id":"51362747472","owner":"53612537@N08","secret":"eabc21fd7f","server":"65535","farm":66,"title":"more red ones","ispublic":1,"isfriend":0,"isfamily":0,"url_s":"https:\/\/live.staticflickr.com\/65535\/51362747472_eabc21fd7f_m.jpg","height_s":181,"width_s":240},{"id":"51362560411","owner":"147990217@N03","secret":"98c0564053","server":"65535","farm":66,"title":"Dunree bay","ispublic":1,"isfriend":0,"isfamily":0,"url_s":"https:\/\/live.staticflickr.com\/65535\/51362560411_98c0564053_m.jpg","height_s":153,"width_s":240},{"id":"51365556389","owner":"157000874@N03","secret":"a7d23c4f9a","server":"65535","farm":66,"title":"My secret garden....","ispublic":1,"isfriend":0,"isfamily":0,"url_s":"https:\/\/live.staticflickr.com\/65535\/51365556389_a7d23c4f9a_m.jpg","height_s":127,"width_s":240},{"id":"51365089045","owner":"31191205@N00","secret":"c3e0591973","server":"65535","farm":66,"title":"Ray Of Light","ispublic":1,"isfriend":0,"isfamily":0,"url_s":"https:\/\/live.staticflickr.com\/65535\/51365089045_c3e0591973_m.jpg","height_s":152,"width_s":240},{"id":"51364263681","owner":"140582260@N06","secret":"3ac8da8217","server":"65535","farm":66,"title":"A street full of rainbows - Explored 9-8-21","ispublic":1,"isfriend":0,"isfamily":0,"url_s":"https:\/\/live.staticflickr.com\/65535\/51364263681_3ac8da8217_m.jpg","height_s":148,"width_s":240},{"id":"51363825468","owner":"70539834@N00","secret":"00ec21a75c","server":"65535","farm":66,"title":"Bass Hole Boardwalk, Yarmouth","ispublic":1,"isfriend":0,"isfamily":0,"url_s":"https:\/\/live.staticflickr.com\/65535\/51363825468_00ec21a75c_m.jpg","height_s":180,"width_s":240},{"id":"51363754625","owner":"130819462@N04","secret":"36532197f1","server":"65535","farm":66,"title":"Sun and fog","ispublic":1,"isfriend":0,"isfamily":0,"url_s":"https:\/\/live.staticflickr.com\/65535\/51363754625_36532197f1_m.jpg","height_s":240,"width_s":171},{"id":"51363646690","owner":"22846203@N04","secret":"84044a811a","server":"65535","farm":66,"title":"All Things Merge Into One...","ispublic":1,"isfriend":0,"isfamily":0,"url_s":"https:\/\/live.staticflickr.com\/65535\/51363646690_84044a811a_m.jpg","height_s":160,"width_s":240},{"id":"51363592587","owner":"72484280@N08","secret":"e6301088ac","server":"65535","farm":66,"title":"Cornelius","ispublic":1,"isfriend":0,"isfamily":0,"url_s":"https:\/\/live.staticflickr.com\/65535\/51363592587_e6301088ac_m.jpg","height_s":116,"width_s":240},{"id":"51363340393","owner":"181747334@N06","secret":"67ffc62b71","server":"65535","farm":66,"title":"Suillus Granulatus  Weeping Bolete","ispublic":1,"isfriend":0,"isfamily":0,"url_s":"https:\/\/live.staticflickr.com\/65535\/51363340393_67ffc62b71_m.jpg","height_s":201,"width_s":240},{"id":"51362921651","owner":"183171141@N03","secret":"d212ab7549","server":"65535","farm":66,"title":"Leuchtturm Campen","ispublic":1,"isfriend":0,"isfamily":0,"url_s":"https:\/\/live.staticflickr.com\/65535\/51362921651_d212ab7549_m.jpg","height_s":240,"width_s":148},{"id":"51362515302","owner":"144931942@N07","secret":"ae2055887c","server":"65535","farm":66,"title":"-2021-08-04","ispublic":1,"isfriend":0,"isfamily":0,"url_s":"https:\/\/live.staticflickr.com\/65535\/51362515302_ae2055887c_m.jpg","height_s":150,"width_s":240}]},"extra":{"explore_date":"2021-08-08","next_prelude_interval":45890},"stat":"ok"}